…
## 4  데이터 가공

```python
# gapminder[A,B]
# A는 행을 지정하는 위치
 # A 는 보통 조건식. (ex. gapminder$country =="Croatia")   
# B는 추출할 열을 지정

> gapminder[,c("country","lifeExp")] # 열 중에서 country와 lifeExp 를 골라출력
# A tibble: 1,704 x 2
   country     lifeExp
   <fct>         <dbl>
 1 Afghanistan    28.8
 2 Afghanistan    30.3
 3 Afghanistan    32.0
 4 Afghanistan    34.0
 5 Afghanistan    36.1
 6 Afghanistan    38.4
 7 Afghanistan    39.9
 8 Afghanistan    40.8
 9 Afghanistan    41.7
10 Afghanistan    41.8
# ... with 1,694 more rows
…
# apply로 추출된 값들을 연산 할 수 있음
> apply(gapminder[gapminder$country == "Croatia" , c("lifeExp","pop")], 2, mean)
     lifeExp          pop 
7.005592e+01 4.289916e+06 

## dplyr 라이브러리를 이용한 데이터 가공
# select : 특정열 추출
> select(gapminder, country, year, lifeExp)
# A tibble: 1,704 x 3
   country      year lifeExp
   <fct>       <int>   <dbl>
 1 Afghanistan  1952    28.8
 2 Afghanistan  1957    30.3
 3 Afghanistan  1962    32.0
 4 Afghanistan  1967    34.0
 5 Afghanistan  1972    36.1
 6 Afghanistan  1977    38.4
 7 Afghanistan  1982    39.9
 8 Afghanistan  1987    40.8
 9 Afghanistan  1992    41.7
10 Afghanistan  1997    41.8
# ... with 1,694 more rows
…
> summarize(group_by(gapminder,continent),pop_avg=mean(pop)) 
# A tibble: 5 x 2
  continent   pop_avg
  <fct>         <dbl>
1 Africa     9916003.
2 Americas  24504795.
3 Asia      77038722.
4 Europe    17169765.
5 Oceania    8874672.

# 대륙별로 그룹화해서 인구 수의 평균값을 구함
> summarize(group_by(gapminder,continent,country),pop_avg=mean(pop))
# A tibble: 142 x 3
# Groups:   continent [5]
   continent country             pop_avg
   <fct>     <fct>                 <dbl>
 1 Africa    Algeria              1.99e7
 2 Africa    Angola               7.31e6
 3 Africa    Benin                4.02e6
 4 Africa    Botswana             9.71e5
 5 Africa    Burkina Faso         7.55e6
 6 Africa    Burundi              4.65e6
 7 Africa    Cameroon             9.82e6
 8 Africa    Central African R~   2.56e6
 9 Africa    Chad                 5.33e6
10 Africa    Comoros              3.62e5
# ... with 132 more rows
…
# 괄호 없으면 안됨
> (x_avg = avocado%>%group_by(region)%>%summarize(V_avg=mean(Total.Volume),P_avg=mean(AveragePrice)))
# A tibble: 54 x 3
   region                 V_avg P_avg
   <chr>                  <dbl> <dbl>
 1 Albany                47538.  1.56
 2 Atlanta              262145.  1.34
 3 BaltimoreWashington  398562.  1.53
 4 Boise                 42643.  1.35
 5 Boston               287793.  1.53
 6 BuffaloRochester      67936.  1.52
 7 California          3044324.  1.40
 8 Charlotte            105194.  1.61
 9 Chicago              395569.  1.56
10 CincinnatiDayton     131722.  1.21
# ... with 44 more rows

> (x_avg = avocado%>%group_by(region,year)%>%summarize(V_avg=mean(Total.Volume),P_avg=mean(AveragePrice)))
# A tibble: 216 x 4
# Groups:   region [54]
   region              year  V_avg P_avg
   <chr>              <int>  <dbl> <dbl>
 1 Albany              2015 3.87e4  1.54
 2 Albany              2016 5.06e4  1.53
 3 Albany              2017 4.94e4  1.64
 4 Albany              2018 6.42e4  1.44
 5 Atlanta             2015 2.23e5  1.38
 6 Atlanta             2016 2.72e5  1.21
 7 Atlanta             2017 2.72e5  1.43
 8 Atlanta             2018 3.43e5  1.29
 9 BaltimoreWashingt~  2015 3.91e5  1.37
10 BaltimoreWashingt~  2016 3.93e5  1.59
# ... with 206 more rows
```
…
